<svg width="137" height="72" viewBox="0 0 137 72" fill="none" xmlns="http://www.w3.org/2000/svg">
<rect width="137" height="72" fill="#C4C4C4"/>
<path d="M67.5 1C61.5682 1 56.9339 2.84028 53.5973 6.52083C50.2607 10.2014 48.5923 14.9062 48.5923 20.6354C48.5511 27.7535 51.2699 33.3958 56.7486 37.5625C57.4489 38.1181 57.696 38.8299 57.4901 39.6979L56.0689 42.1979C55.6158 43.0312 54.9464 43.6823 54.0607 44.151C53.1751 44.6198 51.3111 45.2882 48.4688 46.1562C48.3452 46.191 45.7397 46.9028 40.6523 48.2917C35.565 49.6806 32.8565 50.4444 32.527 50.5833C29.0668 51.7986 26.8011 53.066 25.7301 54.3854C24.5767 56.5729 24 62.1111 24 71H111C111 62.1111 110.423 56.5729 109.27 54.3854C108.199 53.066 105.933 51.7986 102.473 50.5833C102.143 50.4444 99.435 49.6806 94.3477 48.2917C89.2603 46.9028 86.6548 46.191 86.5312 46.1562C83.6889 45.2882 81.8249 44.6198 80.9393 44.151C80.0536 43.6823 79.3842 43.0312 78.9311 42.1979L77.5099 39.6979C77.304 38.8299 77.5511 38.1181 78.2514 37.5625C83.7301 33.3958 86.4489 27.7535 86.4077 20.6354C86.4077 14.9062 84.7393 10.2014 81.4027 6.52083C78.0661 2.84028 73.4318 1 67.5 1Z" fill="black"/>
</svg>
